@startuml

title __MODEL's Class Diagram__\n

  package IriClient {
    package IriClient.rest {
      package IriClient.rest.model {
        class AnalogSensor {
            - name : String
            - sensorValue : Integer
            - unit : String
            - timeStamp : double
            - lowerBound : Integer
            - upperBound : Integer
            - lowerBoundAlarm : Boolean
            - upperBoundAlarm : Boolean
            + getName()
            + setName()
            + getSensorValue()
            + setSensorValue()
            + getUnit()
            + setUnit()
            + getTimeStamp()
            + setTimeStamp()
            + getLowerBound()
            + setLowerBound()
            + getUpperBound()
            + setUpperBound()
            + getLowerBoundAlarm()
            + setLowerBoundAlarm()
            + getUpperBoundAlarm()
            + setUpperBoundAlarm()
        }
      }
    }
  }
  

  package IriClient {
    package IriClient.rest {
      package IriClient.rest.model {
        class BinarySensor {
            - name1 : String
            - sensorValue1 : Boolean
            - timeStamp1 : Double
            - alarm1 : String
            + getName1()
            + setName1()
            + setSensorValue1()
            + getTimeStamp1()
            + setTimeStamp1()
            + getAlarm1()
            + setAlarm1()
            + getSensorValue1()
        }
      }
    }
  }
  

  package IriClient {
    package IriClient.rest {
      package IriClient.rest.model {
        class Sensor {
            - binarySensors : List<BinarySensor>
            - analogSensors : List<AnalogSensor>
            + getBinarySensors()
            + setBinarySensors()
            + getAnalogSensors()
            + setAnalogSensors()
        }
      }
    }
  }
  

  package IriClient {
    package IriClient.rest {
      package IriClient.rest.model {
        class Sensors {
            - sensors : List<Sensor>
            + getSensors()
            + setSensors()
        }
      }
    }
  }
  



right footer


PlantUML diagram generated by SketchIt! (https://bitbucket.org/pmesmeur/sketch.it)
For more information about this tool, please contact philippe.mesmeur@gmail.com
endfooter

@enduml
